<?xml version="1.0" encoding="UTF-8" standalone="no"?>
<!-- Generator: Adobe Illustrator 19.0.0, SVG Export Plug-In . SVG Version: 6.00 Build 0)  -->

<svg
   xmlns:dc="http://purl.org/dc/elements/1.1/"
   xmlns:cc="http://creativecommons.org/ns#"
   xmlns:rdf="http://www.w3.org/1999/02/22-rdf-syntax-ns#"
   xmlns:svg="http://www.w3.org/2000/svg"
   xmlns="http://www.w3.org/2000/svg"
   xmlns:sodipodi="http://sodipodi.sourceforge.net/DTD/sodipodi-0.dtd"
   xmlns:inkscape="http://www.inkscape.org/namespaces/inkscape"
   version="1.1"
   id="Capa_1"
   x="0px"
   y="0px"
   viewBox="0 0 480 480"
   style="enable-background:new 0 0 480 480;"
   xml:space="preserve"
   sodipodi:docname="video-player-gold.svg"
   inkscape:version="0.92.4 (5da689c313, 2019-01-14)"><metadata
   id="metadata49"><rdf:RDF><cc:Work
       rdf:about=""><dc:format>image/svg+xml</dc:format><dc:type
         rdf:resource="http://purl.org/dc/dcmitype/StillImage" /><dc:title></dc:title></cc:Work></rdf:RDF></metadata><defs
   id="defs47" /><sodipodi:namedview
   pagecolor="#ffffff"
   bordercolor="#666666"
   borderopacity="1"
   objecttolerance="10"
   gridtolerance="10"
   guidetolerance="10"
   inkscape:pageopacity="0"
   inkscape:pageshadow="2"
   inkscape:window-width="1366"
   inkscape:window-height="705"
   id="namedview45"
   showgrid="false"
   inkscape:zoom="0.49166667"
   inkscape:cx="240"
   inkscape:cy="240"
   inkscape:window-x="1358"
   inkscape:window-y="-8"
   inkscape:window-maximized="1"
   inkscape:current-layer="Capa_1" />
<g
   id="g6"
   style="fill:#ffae04;fill-opacity:1">
	<g
   id="g4"
   style="fill:#ffae04;fill-opacity:1">
		<path
   d="M400,40H0v400h480V40H400z M64,424H16v-48h48V424z M64,360H16v-48h48V360z M64,296H16v-48h48V296z M64,232H16v-48h48V232z     M64,168H16v-48h48V168z M64,104H16V56h48V104z M400,424H80V56h320V424z M464,424h-48v-48h48V424z M464,360h-48v-48h48V360z     M464,296h-48v-48h48V296z M464,232h-48v-48h48V232z M464,168h-48v-48h48V168z M464,104h-48V56h48V104z"
   id="path2"
   style="fill:#ffae04;fill-opacity:1" />
	</g>
</g>
<g
   id="g12"
   style="fill:#ffae04;fill-opacity:1">
	<g
   id="g10"
   style="fill:#ffae04;fill-opacity:1">
		<path
   d="M302.971,236.003c-0.708-1.238-1.734-2.263-2.971-2.971l-112-64c-3.826-2.209-8.719-0.898-10.928,2.928    c-0.709,1.228-1.079,2.622-1.072,4.04v128c0.003,2.855,1.527,5.492,4,6.92c2.475,1.429,5.525,1.429,8,0l112-64    C303.835,244.726,305.165,239.839,302.971,236.003z M192,290.208V189.792L279.872,240L192,290.208z"
   id="path8"
   style="fill:#ffae04;fill-opacity:1" />
	</g>
</g>
<g
   id="g14">
</g>
<g
   id="g16">
</g>
<g
   id="g18">
</g>
<g
   id="g20">
</g>
<g
   id="g22">
</g>
<g
   id="g24">
</g>
<g
   id="g26">
</g>
<g
   id="g28">
</g>
<g
   id="g30">
</g>
<g
   id="g32">
</g>
<g
   id="g34">
</g>
<g
   id="g36">
</g>
<g
   id="g38">
</g>
<g
   id="g40">
</g>
<g
   id="g42">
</g>
</svg>